E:\org.springframework.boot_spring-boot-web-thymeleaf_jar_1.0_1\src\main\java\com\bankaccount\persistence\Bank_Persistence_Impl.java
E:\org.springframework.boot_spring-boot-web-thymeleaf_jar_1.0_1\src\main\java\com\bankaccount\utils\DatabaseConfig.java
E:\org.springframework.boot_spring-boot-web-thymeleaf_jar_1.0_1\src\main\java\com\bankaccount\service\Bank_Service_Impl.java
E:\org.springframework.boot_spring-boot-web-thymeleaf_jar_1.0_1\src\main\java\com\bankaccount\Post.java
E:\org.springframework.boot_spring-boot-web-thymeleaf_jar_1.0_1\src\main\java\com\bankaccount\controller\AccountRestController.java
E:\org.springframework.boot_spring-boot-web-thymeleaf_jar_1.0_1\src\main\java\com\bankaccount\model\Branch.java
E:\org.springframework.boot_spring-boot-web-thymeleaf_jar_1.0_1\src\main\java\com\bankaccount\Product.java
E:\org.springframework.boot_spring-boot-web-thymeleaf_jar_1.0_1\src\main\java\com\bankaccount\SpringBootWebApplication.java
E:\org.springframework.boot_spring-boot-web-thymeleaf_jar_1.0_1\src\main\java\com\bankaccount\From.java
E:\org.springframework.boot_spring-boot-web-thymeleaf_jar_1.0_1\src\main\java\com\bankaccount\persistence\Bank_Persistence_I.java
E:\org.springframework.boot_spring-boot-web-thymeleaf_jar_1.0_1\src\main\java\com\bankaccount\model\Account.java
E:\org.springframework.boot_spring-boot-web-thymeleaf_jar_1.0_1\src\main\java\com\bankaccount\service\Bank_Service_I.java
E:\org.springframework.boot_spring-boot-web-thymeleaf_jar_1.0_1\src\main\java\com\bankaccount\WelcomeController.java
